<svg xmlns="http://www.w3.org/2000/svg" width="30" height="30" fill="none" viewBox="0 0 30 30">
    <path fill="#fff" d="M28.344 0H1.656C.742 0 0 .742 0 1.656v26.688C0 29.258.742 30 1.656 30H15V18.125h-3.586V13.75H15v-3.234c0-3.875 2.688-5.985 6.148-5.985 1.657 0 3.438.125 3.852.18v4.047h-2.758c-1.883 0-2.242.89-2.242 2.203v2.789h4.484l-.586 4.375H20V30h8.344c.914 0 1.656-.742 1.656-1.656V1.656C30 .742 29.258 0 28.344 0z"/>
</svg>
