<svg xmlns="http://www.w3.org/2000/svg" width="45" height="45" fill="none" viewBox="0 0 45 45">
    <path fill="#FCF6EC" d="M29.531 8.438a7.02 7.02 0 0 1 4.966 2.065 6.969 6.969 0 0 1 2.066 4.966V29.53a7.02 7.02 0 0 1-2.066 4.966 6.969 6.969 0 0 1-4.966 2.066H15.47a7.02 7.02 0 0 1-4.966-2.066 6.969 6.969 0 0 1-2.066-4.966V15.47a7.02 7.02 0 0 1 2.066-4.966 6.969 6.969 0 0 1 4.966-2.066H29.53zm0-2.813H15.47c-5.414 0-9.844 4.43-9.844 9.844V29.53c0 5.414 4.43 9.844 9.844 9.844H29.53c5.414 0 9.844-4.43 9.844-9.844V15.47c0-5.414-4.43-9.844-9.844-9.844z"/>
    <path fill="#FCF6EC" d="M31.64 15.469c-1.168 0-2.109-.94-2.109-2.11a2.11 2.11 0 1 1 2.11 2.11zm-9.14 1.406a5.63 5.63 0 0 1 5.625 5.625 5.63 5.63 0 0 1-5.625 5.625 5.63 5.63 0 0 1-5.625-5.625 5.63 5.63 0 0 1 5.625-5.625zm0-2.813a8.44 8.44 0 0 0-8.438 8.438 8.44 8.44 0 0 0 8.438 8.438 8.44 8.44 0 0 0 8.438-8.438 8.44 8.44 0 0 0-8.438-8.438z"/>
</svg>
